<svg width="21" height="21" viewBox="0 0 21 21" fill="none" xmlns="http://www.w3.org/2000/svg">
<path d="M7.875 18.375L4.375 18.375C3.91087 18.375 3.46575 18.1906 3.13756 17.8624C2.80937 17.5342 2.625 17.0891 2.625 16.625L2.625 4.375C2.625 3.91087 2.80938 3.46575 3.13756 3.13756C3.46575 2.80937 3.91087 2.625 4.375 2.625L7.875 2.625" stroke="#7A7A7A" stroke-linecap="round" stroke-linejoin="round"/>
<path d="M12.25 6.125L7.875 10.5L12.25 14.875" stroke="#7A7A7A" stroke-linecap="round" stroke-linejoin="round"/>
<path d="M7.875 10.5L18.375 10.5" stroke="#7A7A7A" stroke-linecap="round" stroke-linejoin="round"/>
</svg>
